Producto,Valor
Mango,1364
Maracuya,3200
Mora,4000
Lenteja,5000
Brocoli,5000
Alcachofa,8000
Mazorca,2200
Tomate,2200
Zanahoria,2200
Patilla,2000
Limon,3000
Arracacha,1600
Papa,2800
Yuca,2300
Platano,3600
Frjol,6000
Panela,1700
Queso,17000
Aguacate,3500
Fresa,4000